…
#> - check internet connection
#> Cache MISS for fixtures, fetching data
#> Loading 1/9 files...
#> Warning: downloaded length 0 != reported length 9
#> Warning: cannot open URL 'https://github.com/peteowen1/torpdata/releases/download/fixtures-data/fixtures_2019.parquet': HTTP status was '404 Not Found'
#> Warning: Failed to connect to
#> <https://github.com/peteowen1/torpdata/releases/download/fixtures-data/fixtures_2019.parquet>
#> - check internet connection
#> Warning: downloaded length 0 != reported length 9
#> Warning: cannot open URL 'https://github.com/peteowen1/torpdata/releases/download/fixtures-data/fixtures_2020.parquet': HTTP status was '404 Not Found'
#> Warning: Failed to connect to
#> <https://github.com/peteowen1/torpdata/releases/download/fixtures-data/fixtures_2020.parquet>
#> - check internet connection
#> Stored fixtures in cache (1476 rows)
#> # A tibble: 1,476 × 61
#>       id providerId      utcStartTime status compSeason.id compSeason.providerId
#>    <int> <chr>           <chr>        <chr>          <int> <chr>                
#>  1  1475 CD_M20180140101 2018-03-22T… CONCL…            14 CD_S2018014          
#>  2  1707 CD_M20180140102 2018-03-23T… CONCL…            14 CD_S2018014          
#>  3  1476 CD_M20180140103 2018-03-24T… CONCL…            14 CD_S2018014          
#>  4  1477 CD_M20180140104 2018-03-24T… CONCL…            14 CD_S2018014          
#>  5  1474 CD_M20180140105 2018-03-24T… CONCL…            14 CD_S2018014          
#>  6  1483 CD_M20180140106 2018-03-24T… CONCL…            14 CD_S2018014          
#>  7  1490 CD_M20180140107 2018-03-25T… CONCL…            14 CD_S2018014          
#>  8  1482 CD_M20180140108 2018-03-25T… CONCL…            14 CD_S2018014          
#>  9  1488 CD_M20180140109 2018-03-25T… CONCL…            14 CD_S2018014          
#> 10  1534 CD_M20180140201 2018-03-29T… CONCL…            14 CD_S2018014          
#> # ℹ 1,466 more rows
#> # ℹ 55 more variables: compSeason.name <chr>, compSeason.shortName <chr>,
#> #   compSeason.currentRoundNumber <int>, round.id <int>,
#> #   round.providerId <chr>, round.abbreviation <chr>, round.name <chr>,
#> #   round.roundNumber <int>, round.byes <list<list<vctrs_unspecified>>>,
#> #   round.utcStartTime <chr>, round.utcEndTime <chr>, home.team.id <int>,
#> #   home.team.providerId <chr>, home.team.name <chr>, …
…
